{
  "dev": {
    "env": "develop",
    "baseUrl": "https://api-constructora-dev-3znjrse6ua-uc.a.run.app"
  },
  "staging": {
    "env": "staging",
    "baseUrl": "https://api-constructora-staging-3znjrse6ua-uc.a.run.app"
  },
  "production": {
    "env": "production",
    "baseUrl": "https://api-constructora-prod-3znjrse6ua-uc.a.run.app"
  },
  "local": {
    "env": "local",
    "baseUrl": "http://localhost:4000"
  }
}
